{
  "version": 1,
  "root": {
    "ref": "o:1",
    "type": "t:1"
  },
  "objects": {
    "o:1": {
      "name": "Repository One",
      "description": "Official one",
      "mods": [
        {
          "ref": "o:2",
          "type": "t:2"
        },
        {
          "ref": "o:3",
          "type": "t:2"
        }
      ],
      "isa": {
        "type": "t:1"
      }
    },
    "o:2": {
      "barcode": "fa4d617a-51d5-4322-802f-506972617465",
      "name": "Pirate Stuff",
      "description": "Just pirate things",
      "author": "Mazladore",
      "version": "0.0.1",
      "internal": false,
      "tags": [
        "pirate",
        "pirates",
        "ninja",
        "ninjas",
        "arr",
        "matey"
      ],
      "thumbnailUrl": "https://bitbucket.org/yewnyx/myfirstmod/raw/master/skull.png",
      "manifestUrl": "https://bitbucket.org/yewnyx/myfirstmod/downloads/pallet.json",
      "targets": {
        "pc": {
          "ref": "o:4",
          "type": "t:3"
        }
      },
      "isa": {
        "type": "t:2"
      }
    },
    "o:3": {
      "barcode": "fa43616d-9eb7-4298-aa92-31f054657374",
      "name": "TestPallet",
      "description": "",
      "author": "Camobiwon",
      "version": "0.0.0",
      "internal": false,
      "tags": [
        "Camobiwon",
        "mod"
      ],
      "thumbnailUrl": "https://bitbucket.org/yewnyx/myfirstmod/raw/master/Camobiwon-TestPallet.png",
      "manifestUrl": "https://bitbucket.org/yewnyx/myfirstmod/downloads/Camobiwon-TestPallet.pallet.json",
      "targets": {
        "pc": {
          "ref": "o:5",
          "type": "t:3"
        }
      },
      "isa": {
        "type": "t:2"
      }
    },
    "o:4": {
        "thumbnailOverride": "",
        "url": "https://bitbucket.org/yewnyx/myfirstmod/downloads/Mazladore-Pirate_Stuff.zip",
        "isa": {
            "type": "t:3"
        }
    },
    "o:5": {
        "thumbnailOverride": "",
        "url": "https://bitbucket.org/yewnyx/myfirstmod/downloads/Camobiwon-TestPallet.zip",
        "isa": {
            "type": "t:3"
        }
    }
  },
  "types": {
    "t:1": {
      "type": "t:1",
      "fullname": "StressLevelZero.BoneMods.Forklift.ModRepository, SLZ.BoneMods, Version=0.0.0.0, Culture=neutral, PublicKeyToken=null"
    },
    "t:2": {
      "type": "t:2",
      "fullname": "StressLevelZero.BoneMods.Forklift.ModListing, SLZ.BoneMods, Version=0.0.0.0, Culture=neutral, PublicKeyToken=null"
    },
    "t:3": {
      "type": "t:3",
      "fullname": "StressLevelZero.BoneMods.Forklift.DownloadableModTarget, SLZ.BoneMods, Version=0.0.0.0, Culture=neutral, PublicKeyToken=null"
    }
  }
}